…
    ## Number of common_name observations: 634

``` r
genus <- van_trees_fct %>%
  group_by(genus_name) %>%
  summarise(frequency = n()) 

genus_freq <- genus %>%
  mutate(genus_name = fct_infreq(genus_name))

print(genus_freq)
```

    ## # A tibble: 97 × 2
    ##    genus_name  frequency
    ##    <fct>           <int>
    ##  1 ABIES             190
    ##  2 ACER            36062
    ##  3 AESCULUS         2570
    ##  4 AILANTHUS           4
    ##  5 ALBIZIA             1
    ##  6 ALNUS              74
    ##  7 AMELANCHIER       226
    ##  8 ARALIA              4
    ##  9 ARAUCARIA          10
    ## 10 ARBUTUS            10
    ## # ℹ 87 more rows

``` r
genus_common_freq <- van_trees_fct %>%
  group_by(genus_name, common_name) %>%
  summarise(frequency = n()) 
```

    ## `summarise()` has grouped output by 'genus_name'. You can override using the
    ## `.groups` argument.

``` r
print(genus_common_freq)
```

    ## # A tibble: 634 × 3
    ## # Groups:   genus_name [97]
    ##    genus_name common_name              frequency
    ##    <fct>      <fct>                        <int>
    ##  1 ABIES      ALPINE FIR                       1
    ##  2 ABIES      BALSAM FIR                       9
    ##  3 ABIES      GRAND FIR                      107
    ##  4 ABIES      HARVEST ORANGE JPN MAPLE        47
    ##  5 ABIES      KOREAN FIR                       9
    ##  6 ABIES      NOBLE FIR                        6
    ##  7 ABIES      NORDMAN FIR                      1
    ##  8 ABIES      WHITE FIR                       10
    ##  9 ACER       ALMIRA NORWAY MAPLE              9
    ## 10 ACER       AMUR MAPLE                     276
    ## # ℹ 624 more rows
…
**Summarizing:** Here, we are pulling out the most common tree in
Vancouver to analyze age vs diameter data

``` r
today = Sys.Date() #gets today's date

vancouver_trees_age <- vancouver_trees %>%
  mutate(age_yrs = (as.numeric(difftime(today, date_planted, units = "days"))) / 365.25) %>%
  #selects only specific columns
  select(genus_name,common_name,height_range_id,diameter,date_planted,age_yrs) 

print(vancouver_trees_age)
```

    ## # A tibble: 146,611 × 6
    ##    genus_name common_name          height_range_id diameter date_planted age_yrs
    ##    <chr>      <chr>                          <dbl>    <dbl> <date>         <dbl>
    ##  1 ULMUS      BRANDON ELM                        2     10   1999-01-13      24.8
    ##  2 ZELKOVA    JAPANESE ZELKOVA                   4     10   1996-05-31      27.4
    ##  3 STYRAX     JAPANESE SNOWBELL                  3      4   1993-11-22      29.9
    ##  4 FRAXINUS   AUTUMN APPLAUSE ASH                4     18   1996-04-29      27.5
    ##  5 ACER       HEDGE MAPLE                        2      9   1993-12-17      29.9
    ##  6 PYRUS      CHANTICLEER PEAR                   2      5   NA              NA  
    ##  7 ACER       COLUMNAR NORWAY MAP…               3     15   1993-12-16      29.9
    ##  8 ACER       COLUMNAR NORWAY MAP…               3     14   1993-12-16      29.9
    ##  9 ACER       COLUMNAR NORWAY MAP…               2     16   1993-12-16      29.9
    ## 10 FRAXINUS   AUTUMN APPLAUSE ASH                2      7.5 1993-12-03      29.9
    ## # ℹ 146,601 more rows
…
    ## # A tibble: 1 × 3
    ## # Groups:   genus_name [1]
    ##   genus_name common_name              frequency
    ##   <fct>      <fct>                        <int>
    ## 1 PRUNUS     KWANZAN FLOWERING CHERRY     10529

``` r
most_common_tree_all <- vancouver_trees_age %>%
  filter(common_name == most_common_tree)

print(most_common_tree_all)
```

    ## # A tibble: 10,529 × 6
    ##    genus_name common_name          height_range_id diameter date_planted age_yrs
    ##    <chr>      <chr>                          <dbl>    <dbl> <date>         <dbl>
    ##  1 PRUNUS     KWANZAN FLOWERING C…               2     17   NA              NA  
    ##  2 PRUNUS     KWANZAN FLOWERING C…               2      9   NA              NA  
    ##  3 PRUNUS     KWANZAN FLOWERING C…               2     16   NA              NA  
    ##  4 PRUNUS     KWANZAN FLOWERING C…               2      9   NA              NA  
    ##  5 PRUNUS     KWANZAN FLOWERING C…               2      6.5 1996-12-11      26.9
    ##  6 PRUNUS     KWANZAN FLOWERING C…               3     37   NA              NA  
    ##  7 PRUNUS     KWANZAN FLOWERING C…               3     12   NA              NA  
    ##  8 PRUNUS     KWANZAN FLOWERING C…               2      6   NA              NA  
    ##  9 PRUNUS     KWANZAN FLOWERING C…               3     11.5 NA              NA  
    ## 10 PRUNUS     KWANZAN FLOWERING C…               3     18.5 NA              NA  
    ## # ℹ 10,519 more rows
…
#### **3)**

*What is the age vs height relationship of the most common tree?*

**Summarizing:**

``` r
mc_tree_height <- most_common_tree_all %>%
  select(genus_name,common_name,height_range_id,diameter,age_yrs) %>%
  filter(!is.na(age_yrs))

print(mc_tree_height)
```

    ## # A tibble: 1,549 × 5
    ##    genus_name common_name              height_range_id diameter age_yrs
    ##    <chr>      <chr>                              <dbl>    <dbl>   <dbl>
    ##  1 PRUNUS     KWANZAN FLOWERING CHERRY               2     6.5     26.9
    ##  2 PRUNUS     KWANZAN FLOWERING CHERRY               2     3       28.5
    ##  3 PRUNUS     KWANZAN FLOWERING CHERRY               1     3       11.6
    ##  4 PRUNUS     KWANZAN FLOWERING CHERRY               1     4.75    11.0
    ##  5 PRUNUS     KWANZAN FLOWERING CHERRY               1     7.75    10.0
    ##  6 PRUNUS     KWANZAN FLOWERING CHERRY               2     6       26.9
    ##  7 PRUNUS     KWANZAN FLOWERING CHERRY               2     8.5     24.5
    ##  8 PRUNUS     KWANZAN FLOWERING CHERRY               2     5.5     26.9
    ##  9 PRUNUS     KWANZAN FLOWERING CHERRY               1     5.25    17.8
    ## 10 PRUNUS     KWANZAN FLOWERING CHERRY               1     5       16.8
    ## # ℹ 1,539 more rows
…
*BEFORE —-\> The Untidy Data Set below contains more columns than needed
for analysis, has no “age” column that I need AND includes unnecessary
NA values for some rows*

``` r
print(vancouver_trees)
```

    ## # A tibble: 146,611 × 20
    ##    tree_id civic_number std_street    genus_name species_name cultivar_name  
    ##      <dbl>        <dbl> <chr>         <chr>      <chr>        <chr>          
    ##  1  149556          494 W 58TH AV     ULMUS      AMERICANA    BRANDON        
    ##  2  149563          450 W 58TH AV     ZELKOVA    SERRATA      <NA>           
    ##  3  149579         4994 WINDSOR ST    STYRAX     JAPONICA     <NA>           
    ##  4  149590          858 E 39TH AV     FRAXINUS   AMERICANA    AUTUMN APPLAUSE
    ##  5  149604         5032 WINDSOR ST    ACER       CAMPESTRE    <NA>           
    ##  6  149616          585 W 61ST AV     PYRUS      CALLERYANA   CHANTICLEER    
    ##  7  149617         4909 SHERBROOKE ST ACER       PLATANOIDES  COLUMNARE      
    ##  8  149618         4925 SHERBROOKE ST ACER       PLATANOIDES  COLUMNARE      
    ##  9  149619         4969 SHERBROOKE ST ACER       PLATANOIDES  COLUMNARE      
    ## 10  149625          720 E 39TH AV     FRAXINUS   AMERICANA    AUTUMN APPLAUSE
    ## # ℹ 146,601 more rows
    ## # ℹ 14 more variables: common_name <chr>, assigned <chr>, root_barrier <chr>,
    ## #   plant_area <chr>, on_street_block <dbl>, on_street <chr>,
    ## #   neighbourhood_name <chr>, street_side_name <chr>, height_range_id <dbl>,
    ## #   diameter <dbl>, curb <chr>, date_planted <date>, longitude <dbl>,
    ## #   latitude <dbl>

*AFTER —-\> The Tidy Data Set has a new column called “age_yrs”, only
the columns needed for analysis (genus name, common name, height ID,
diameter and age) and removes the NA values for the age_yrs column*

``` r
print(vancouver_trees_age_tidy)
```

    ## # A tibble: 70,063 × 5
    ##    genus_name common_name           height_range_id diameter age_yrs
    ##    <chr>      <chr>                           <dbl>    <dbl>   <dbl>
    ##  1 ULMUS      BRANDON ELM                         2    10       24.8
    ##  2 ZELKOVA    JAPANESE ZELKOVA                    4    10       27.4
    ##  3 STYRAX     JAPANESE SNOWBELL                   3     4       29.9
    ##  4 FRAXINUS   AUTUMN APPLAUSE ASH                 4    18       27.5
    ##  5 ACER       HEDGE MAPLE                         2     9       29.9
    ##  6 ACER       COLUMNAR NORWAY MAPLE               3    15       29.9
    ##  7 ACER       COLUMNAR NORWAY MAPLE               3    14       29.9
    ##  8 ACER       COLUMNAR NORWAY MAPLE               2    16       29.9
    ##  9 FRAXINUS   AUTUMN APPLAUSE ASH                 2     7.5     29.9
    ## 10 TILIA      CRIMEAN LINDEN                      2     7.75    29.9
    ## # ℹ 70,053 more rows

*Untidying the tidy data set by setting it equal to the original untidy
one*

``` r
vancouver_trees_age_untidy <- vancouver_trees
print(vancouver_trees_age_untidy)
```

    ## # A tibble: 146,611 × 20
    ##    tree_id civic_number std_street    genus_name species_name cultivar_name  
    ##      <dbl>        <dbl> <chr>         <chr>      <chr>        <chr>          
    ##  1  149556          494 W 58TH AV     ULMUS      AMERICANA    BRANDON        
    ##  2  149563          450 W 58TH AV     ZELKOVA    SERRATA      <NA>           
    ##  3  149579         4994 WINDSOR ST    STYRAX     JAPONICA     <NA>           
    ##  4  149590          858 E 39TH AV     FRAXINUS   AMERICANA    AUTUMN APPLAUSE
    ##  5  149604         5032 WINDSOR ST    ACER       CAMPESTRE    <NA>           
    ##  6  149616          585 W 61ST AV     PYRUS      CALLERYANA   CHANTICLEER    
    ##  7  149617         4909 SHERBROOKE ST ACER       PLATANOIDES  COLUMNARE      
    ##  8  149618         4925 SHERBROOKE ST ACER       PLATANOIDES  COLUMNARE      
    ##  9  149619         4969 SHERBROOKE ST ACER       PLATANOIDES  COLUMNARE      
    ## 10  149625          720 E 39TH AV     FRAXINUS   AMERICANA    AUTUMN APPLAUSE
    ## # ℹ 146,601 more rows
    ## # ℹ 14 more variables: common_name <chr>, assigned <chr>, root_barrier <chr>,
    ## #   plant_area <chr>, on_street_block <dbl>, on_street <chr>,
    ## #   neighbourhood_name <chr>, street_side_name <chr>, height_range_id <dbl>,
    ## #   diameter <dbl>, curb <chr>, date_planted <date>, longitude <dbl>,
    ## #   latitude <dbl>
…
most_common_tree_all <- vancouver_trees_age %>%
  filter(common_name == most_common_tree)

mc_tree_height <- most_common_tree_all %>%
  select(genus_name,common_name,height_range_id,diameter,age_yrs) %>%
  filter(!is.na(age_yrs))

mc_tree_diam_age <- mc_tree_height %>%
  select(genus_name,common_name,diameter,age_yrs) #removed only the height_range_id

print(mc_tree_diam_age)
```

    ## # A tibble: 1,549 × 4
    ##    genus_name common_name              diameter age_yrs
    ##    <chr>      <chr>                       <dbl>   <dbl>
    ##  1 PRUNUS     KWANZAN FLOWERING CHERRY     6.5     26.9
    ##  2 PRUNUS     KWANZAN FLOWERING CHERRY     3       28.5
    ##  3 PRUNUS     KWANZAN FLOWERING CHERRY     3       11.6
    ##  4 PRUNUS     KWANZAN FLOWERING CHERRY     4.75    11.0
    ##  5 PRUNUS     KWANZAN FLOWERING CHERRY     7.75    10.0
    ##  6 PRUNUS     KWANZAN FLOWERING CHERRY     6       26.9
    ##  7 PRUNUS     KWANZAN FLOWERING CHERRY     8.5     24.5
    ##  8 PRUNUS     KWANZAN FLOWERING CHERRY     5.5     26.9
    ##  9 PRUNUS     KWANZAN FLOWERING CHERRY     5.25    17.8
    ## 10 PRUNUS     KWANZAN FLOWERING CHERRY     5       16.8
    ## # ℹ 1,539 more rows

2.  *What is the age vs height relationship of the most common tree?*

This data set is similar to the one for the previous questions just
focusing on a different column for analysis, see just above for details
in the code:

``` r
print(mc_tree_height)
```

    ## # A tibble: 1,549 × 5
    ##    genus_name common_name              height_range_id diameter age_yrs
    ##    <chr>      <chr>                              <dbl>    <dbl>   <dbl>
    ##  1 PRUNUS     KWANZAN FLOWERING CHERRY               2     6.5     26.9
    ##  2 PRUNUS     KWANZAN FLOWERING CHERRY               2     3       28.5
    ##  3 PRUNUS     KWANZAN FLOWERING CHERRY               1     3       11.6
    ##  4 PRUNUS     KWANZAN FLOWERING CHERRY               1     4.75    11.0
    ##  5 PRUNUS     KWANZAN FLOWERING CHERRY               1     7.75    10.0
    ##  6 PRUNUS     KWANZAN FLOWERING CHERRY               2     6       26.9
    ##  7 PRUNUS     KWANZAN FLOWERING CHERRY               2     8.5     24.5
    ##  8 PRUNUS     KWANZAN FLOWERING CHERRY               2     5.5     26.9
    ##  9 PRUNUS     KWANZAN FLOWERING CHERRY               1     5.25    17.8
    ## 10 PRUNUS     KWANZAN FLOWERING CHERRY               1     5       16.8
    ## # ℹ 1,539 more rows
…
